…
    ## Warning: package 'here' was built under R version 4.5.2

    ## here() starts at C:/Users/qus7tm/Documents/git/gasparrini_2017_gasparrini_Biomet_Rcodedata

# LOAD DATA

``` r
(london <- read.csv(here("example1/london.csv")) %>% tibble())
```

    ## # A tibble: 5,113 × 13
    ##    date        year month   day  time  yday dow    tmean  tmin  tmax   dewp    rh death
    ##    <chr>      <int> <int> <int> <int> <int> <chr>  <dbl> <dbl> <dbl>  <dbl> <dbl> <int>
    ##  1 1993-01-01  1993     1     1     1     1 Fri    4.63   1.57  7.67  2.39   79.4   233
    ##  2 1993-01-02  1993     1     2     2     2 Sat   -0.168 -2.76  2.40 -1.50   85.9   228
    ##  3 1993-01-03  1993     1     3     3     3 Sun   -0.875 -5.16  3.40 -5.22   69.4   228
    ##  4 1993-01-04  1993     1     4     4     4 Mon    2.48  -1.99  6.94  2.04   88.2   223
    ##  5 1993-01-05  1993     1     5     5     5 Tue    7.45   3.45 11.4   8.63   94.0   246
    ##  6 1993-01-06  1993     1     6     6     6 Wed    9.95   7.78 12.1  10.1    90.0   242
    ##  7 1993-01-07  1993     1     7     7     7 Thu    6.98   2.92 11.0   5.93   93.6   226
    ##  8 1993-01-08  1993     1     8     8     8 Fri    7.34   3.43 11.2   0.177  67.0   218
    ##  9 1993-01-09  1993     1     9     9     9 Sat    7.91   3.65 12.2   8.93   84.8   212
    ## 10 1993-01-10  1993     1    10    10    10 Sun    9.92   7.79 12.1   9.63   89.4   218
    ## # ℹ 5,103 more rows
…
